One_hot/test_run_dir/make_a_vcd/make_a_vcd.vcd
$date
2019-07-04T08:55+0000
$end
$version
0.2
$end
$comment

$end
$timescale 1ns  $end
$scope module GCD $end
 $var wire 16 ! io_outputGCD $end
 $var wire 1 " io_outputValid $end
 $var wire 16 # _GEN_1 $end
 $var wire 16 $ y $end
 $var wire 16 % io_value2 $end
 $var wire 1 & clock $end
 $var wire 16 ' x $end
 $var wire 16 ( _GEN_0 $end
 $var wire 1 ) reset $end
 $var wire 16 * io_value1 $end
 $var wire 1 + io_loadingValues $end
$upscope $end
$enddefinitions $end
$dumpvars
b0000000000000000 '
b0000000000000000 $
0"
0)
0&
b0000000000000000 %
b0000000000000000 (
b0000000000000000 !
0+
b0000000000000000 #
b0000000000000000 *
$end
#0
1)
1"
#1
1&
#6
0&
#11
1&
#16
0&
#21
1&
#26
0&
#31
1&
#36
0&
#41
1&
#46
0)
0&
b0000000000000001 %
1+
b0000000000000001 *
#51
b0000000000000001 (
b0000000000000001 '
1&
0"
b0000000000000001 !
b0000000000000001 $
#56
0+
0&
#61
1"
b0000000000000000 $
1&
#66
0&
b0000000000001000 %
1+
#71
b0000000000001000 $
1&
0"
b0000000000000111 #
#76
0+
0&
#81
b0000000000000110 #
b0000000000000111 $
1&
#86
0&
#91
1&
b0000000000000110 $
b0000000000000101 #
#96
0&
#101
1&
b0000000000000101 $
b0000000000000100 #
#106
0&
#111
b0000000000000011 #
1&
b0000000000000100 $
#116
0&
#121
b0000000000000010 #
b0000000000000011 $
1&
#126
0&
#131
b0000000000000010 $
b0000000000000001 #
1&
#136
0&
#141
b0000000000000000 #
1&
b0000000000000001 $
#146
0&
#151
1"
b0000000000000000 $
1&
#156
0&
b0000000000001111 %
1+
#161
b0000000000001110 #
b0000000000001111 $
1&
0"
#166
0+
0&
#171
b0000000000001110 $
b0000000000001101 #
1&
#176
0&
#181
b0000000000001100 #
1&
b0000000000001101 $
#186
0&
#191
b0000000000001011 #
b0000000000001100 $
1&
#196
0&
#201
b0000000000001010 #
b0000000000001011 $
1&
#206
0&
#211
b0000000000001010 $
1&
b0000000000001001 #
#216
0&
#221
b0000000000001000 #
1&
b0000000000001001 $
#226
0&
#231
b0000000000001000 $
1&
b0000000000000111 #
#236
0&
#241
b0000000000000110 #
b0000000000000111 $
1&
#246
0&
#251
1&
b0000000000000110 $
b0000000000000101 #
#256
0&
#261
1&
b0000000000000101 $
b0000000000000100 #
#266
0&
#271
b0000000000000011 #
1&
b0000000000000100 $
#276
0&
#281
b0000000000000010 #
b0000000000000011 $
1&
#286
0&
#291
b0000000000000010 $
b0000000000000001 #
1&
#296
0&
#301
b0000000000000000 #
1&
b0000000000000001 $
#306
0&
#311
1"
b0000000000000000 $
1&
#316
b0000000000010110 %
0&
1+
#321
b0000000000010110 $
b0000000000010101 #
1&
0"
#326
0+
0&
#331
b0000000000010100 #
1&
b0000000000010101 $
#336
0&
#341
b0000000000010100 $
1&
b0000000000010011 #
#346
0&
#351
1&
b0000000000010010 #
b0000000000010011 $
#356
0&
#361
b0000000000010010 $
1&
b0000000000010001 #
#366
0&
#371
1&
b0000000000010001 $
b0000000000010000 #
#376
0&
#381
1&
b0000000000001111 #
b0000000000010000 $
#386
0&
#391
b0000000000001110 #
b0000000000001111 $
1&
#396
0&
#401
b0000000000001110 $
b0000000000001101 #
1&
#406
0&
#411
b0000000000001100 #
1&
b0000000000001101 $
#416
0&
#421
b0000000000001011 #
b0000000000001100 $
1&
#426
0&
#431
b0000000000001010 #
b0000000000001011 $
1&
#436
0&
#441
b0000000000001010 $
1&
b0000000000001001 #
#446
0&
#451
b0000000000001000 #
1&
b0000000000001001 $
#456
0&
#461
b0000000000001000 $
1&
b0000000000000111 #
#466
0&
#471
b0000000000000110 #
b0000000000000111 $
1&
#476
0&
#481
1&
b0000000000000110 $
b0000000000000101 #
#486
0&
#491
1&
b0000000000000101 $
b0000000000000100 #
#496
0&
#501
b0000000000000011 #
1&
b0000000000000100 $
#506
0&
#511
b0000000000000010 #
b0000000000000011 $
1&
#516
0&
#521
b0000000000000010 $
b0000000000000001 #
1&
#526
0&
#531
b0000000000000000 #
1&
b0000000000000001 $
#536
0&
#541
1"
b0000000000000000 $
1&
#546
0&
b0000000000011101 %
1+
#551
1&
b0000000000011101 $
0"
b0000000000011100 #
#556
0+
0&
#561
1&
b0000000000011011 #
b0000000000011100 $
#566
0&
#571
b0000000000011011 $
1&
b0000000000011010 #
#576
0&
#581
b0000000000011010 $
1&
b0000000000011001 #
#586
0&
#591
b0000000000011001 $
b0000000000011000 #
1&
#596
0&
#601
b0000000000010111 #
b0000000000011000 $
1&
#606
0&
#611
1&
b0000000000010110 #
b0000000000010111 $
#616
0&
#621
b0000000000010110 $
b0000000000010101 #
1&
#626
0&
#631
b0000000000010100 #
1&
b0000000000010101 $
#636
0&
#641
b0000000000010100 $
1&
b0000000000010011 #
#646
0&
#651
1&
b0000000000010010 #
b0000000000010011 $
#656
0&
#661
b0000000000010010 $
1&
b0000000000010001 #
#666
0&
#671
1&
b0000000000010001 $
b0000000000010000 #
#676
0&
#681
1&
b0000000000001111 #
b0000000000010000 $
#686
0&
#691
b0000000000001110 #
b0000000000001111 $
1&
#696
0&
#701
b0000000000001110 $
b0000000000001101 #
1&
#706
0&
#711
b0000000000001100 #
1&
b0000000000001101 $
#716
0&
#721
b0000000000001011 #
b0000000000001100 $
1&
#726
0&
#731
b0000000000001010 #
b0000000000001011 $
1&
#736
0&
#741
b0000000000001010 $
1&
b0000000000001001 #
#746
0&
#751
b0000000000001000 #
1&
b0000000000001001 $
#756
0&
#761
b0000000000001000 $
1&
b0000000000000111 #
#766
0&
#771
b0000000000000110 #
b0000000000000111 $
1&
#776
0&
#781
1&
b0000000000000110 $
b0000000000000101 #
#786
0&
#791
1&
b0000000000000101 $
b0000000000000100 #
#796
0&
#801
b0000000000000011 #
1&
b0000000000000100 $
#806
0&
#811
b0000000000000010 #
b0000000000000011 $
1&
#816
0&
#821
b0000000000000010 $
b0000000000000001 #
1&
#826
0&
#831
b0000000000000000 #
1&
b0000000000000001 $
#836
0&
#841
1"
b0000000000000000 $
1&
#846
b0000000000100100 %
0&
1+
#851
b0000000000100011 #
1&
0"
b0000000000100100 $
#856
0+
0&
#861
b0000000000100010 #
1&
b0000000000100011 $
#866
0&
#871
b0000000000100001 #
1&
b0000000000100010 $
#876
0&
#881
1&
b0000000000100001 $
b0000000000100000 #
#886
0&
#891
b0000000000100000 $
b0000000000011111 #
1&
#896
0&
#901
1&
b0000000000011111 $
b0000000000011110 #
#906
0&
#911
b0000000000011101 #
1&
b0000000000011110 $
#916
0&
#921
1&
b0000000000011101 $
b0000000000011100 #
#926
0&
#931
1&
b0000000000011011 #
b0000000000011100 $
#936
0&
#941
b0000000000011011 $
1&
b0000000000011010 #
#946
0&
#951
b0000000000011010 $
1&
b0000000000011001 #
#956
0&
#961
b0000000000011001 $
b0000000000011000 #
1&
#966
0&
#971
b0000000000010111 #
b0000000000011000 $
1&
#976
0&
#981
1&
b0000000000010110 #
b0000000000010111 $
#986
0&
#991
b0000000000010110 $
b0000000000010101 #
1&
#996
0&
#1001
b0000000000010100 #
1&
b0000000000010101 $
#1006
0&
#1011
b0000000000010100 $
1&
b0000000000010011 #
#1016
0&
#1021
1&
b0000000000010010 #
b0000000000010011 $
#1026
0&
#1031
b0000000000010010 $
1&
b0000000000010001 #
#1036
0&
#1041
1&
b0000000000010001 $
b0000000000010000 #
#1046
0&
#1051
1&
b0000000000001111 #
b0000000000010000 $
#1056
0&
#1061
b0000000000001110 #
b0000000000001111 $
1&
#1066
0&
#1071
b0000000000001110 $
b0000000000001101 #
1&
#1076
0&
#1081
b0000000000001100 #
1&
b0000000000001101 $
#1086
0&
#1091
b0000000000001011 #
b0000000000001100 $
1&
#1096
0&
#1101
b0000000000001010 #
b0000000000001011 $
1&
#1106
0&
#1111
b0000000000001010 $
1&
b0000000000001001 #
#1116
0&
#1121
b0000000000001000 #
1&
b0000000000001001 $
#1126
0&
#1131
b0000000000001000 $
1&
b0000000000000111 #
#1136
0&
#1141
b0000000000000110 #
b0000000000000111 $
1&
#1146
0&
#1151
1&
b0000000000000110 $
b0000000000000101 #
#1156
0&
#1161
1&
b0000000000000101 $
b0000000000000100 #
#1166
0&
#1171
b0000000000000011 #
1&
b0000000000000100 $
#1176
0&
#1181
b0000000000000010 #
b0000000000000011 $
1&
#1186
0&
#1191
b0000000000000010 $
b0000000000000001 #
1&
#1196
0&
#1201
b0000000000000000 #
1&
b0000000000000001 $
#1206
0&
#1211
1"
b0000000000000000 $
1&
#1216
0&
b0000000000000100 *
b0000000000000001 %
1+
#1221
b0000000000000001 #
b0000000000000100 '
b0000000000000011 (
1&
0"
b0000000000000100 !
b0000000000000001 $
#1226
0+
0&
#1231
b0000000000000011 '
b0000000000000011 !
b0000000000000010 (
1&
#1236
0&
#1241
b0000000000000010 !
b0000000000000001 (
b0000000000000010 '
1&
#1246
0&
#1251
b0000000000000000 #
b0000000000000001 '
1&
b0000000000000001 !
#1256
0&
#1261
1"
b0000000000000000 $
1&
#1266
0&
b0000000000001000 %
1+
#1271
b0000000000001000 $
b0000000000000100 '
1&
b0000000000000100 #
0"
b0000000000000100 !
b0000000000000100 (
#1276
0+
0&
#1281
b0000000000000000 #
1&
b0000000000000100 $
#1286
0&
#1291
1"
b0000000000000000 $
1&
#1296
0&
b0000000000001111 %
1+
#1301
b0000000000001111 $
b0000000000001011 #
1&
0"
#1306
0+
0&
#1311
b0000000000001011 $
1&
b0000000000000111 #
#1316
0&
#1321
b0000000000000111 $
b0000000000000011 #
1&
#1326
0&
#1331
b0000000000000001 (
b0000000000000011 $
1&
#1336
0&
#1341
b0000000000000010 #
b0000000000000001 '
1&
b0000000000000001 !
#1346
0&
#1351
b0000000000000010 $
b0000000000000001 #
1&
#1356
0&
#1361
b0000000000000000 #
1&
b0000000000000001 $
#1366
0&
#1371
1"
b0000000000000000 $
1&
#1376
b0000000000010110 %
0&
1+
#1381
b0000000000010110 $
b0000000000000100 '
1&
b0000000000010010 #
0"
b0000000000000100 !
b0000000000000100 (
#1386
0+
0&
#1391
b0000000000001110 #
b0000000000010010 $
1&
#1396
0&
#1401
b0000000000001010 #
b0000000000001110 $
1&
#1406
0&
#1411
b0000000000000110 #
b0000000000001010 $
1&
#1416
0&
#1421
b0000000000000010 #
1&
b0000000000000110 $
#1426
0&
#1431
b0000000000000010 $
b0000000000000010 (
1&
#1436
0&
#1441
b0000000000000010 !
b0000000000000000 #
b0000000000000010 '
1&
#1446
0&
#1451
1"
b0000000000000000 $
1&
#1456
0&
b0000000000011101 %
1+
#1461
b0000000000000100 '
1&
b0000000000011101 $
b0000000000011001 #
0"
b0000000000000100 !
b0000000000000100 (
#1466
0+
0&
#1471
b0000000000011001 $
b0000000000010101 #
1&
#1476
0&
#1481
1&
b0000000000010101 $
b0000000000010001 #
#1486
0&
#1491
b0000000000001101 #
1&
b0000000000010001 $
#1496
0&
#1501
1&
b0000000000001101 $
b0000000000001001 #
#1506
0&
#1511
1&
b0000000000001001 $
b0000000000000101 #
#1516
0&
#1521
b0000000000000001 #
1&
b0000000000000101 $
#1526
0&
#1531
b0000000000000011 (
1&
b0000000000000001 $
#1536
0&
#1541
b0000000000000011 '
b0000000000000011 !
b0000000000000010 (
1&
#1546
0&
#1551
b0000000000000010 !
b0000000000000001 (
b0000000000000010 '
1&
#1556
0&
#1561
b0000000000000000 #
b0000000000000001 '
1&
b0000000000000001 !
#1566
0&
#1571
1"
b0000000000000000 $
1&
#1576
b0000000000100100 %
0&
1+
#1581
b0000000000000100 '
1&
0"
b0000000000000100 !
b0000000000000100 (
b0000000000100000 #
b0000000000100100 $
#1586
0+
0&
#1591
b0000000000100000 $
1&
b0000000000011100 #
#1596
0&
#1601
b0000000000011000 #
1&
b0000000000011100 $
#1606
0&
#1611
b0000000000010100 #
b0000000000011000 $
1&
#1616
0&
#1621
b0000000000010100 $
1&
b0000000000010000 #
#1626
0&
#1631
b0000000000001100 #
1&
b0000000000010000 $
#1636
0&
#1641
b0000000000001000 #
b0000000000001100 $
1&
#1646
0&
#1651
b0000000000001000 $
1&
b0000000000000100 #
#1656
0&
#1661
b0000000000000000 #
1&
b0000000000000100 $
#1666
0&
#1671
1"
b0000000000000000 $
1&
#1676
b0000000000000111 *
0&
b0000000000000001 %
1+
#1681
b0000000000000001 #
1&
b0000000000000111 '
b0000000000000111 !
b0000000000000110 (
0"
b0000000000000001 $
#1686
0+
0&
#1691
b0000000000000110 '
b0000000000000101 (
b0000000000000110 !
1&
#1696
0&
#1701
b0000000000000101 !
1&
b0000000000000101 '
b0000000000000100 (
#1706
0&
#1711
b0000000000000100 '
b0000000000000011 (
1&
b0000000000000100 !
#1716
0&
#1721
b0000000000000011 '
b0000000000000011 !
b0000000000000010 (
1&
#1726
0&
#1731
b0000000000000010 !
b0000000000000001 (
b0000000000000010 '
1&
#1736
0&
#1741
b0000000000000000 #
b0000000000000001 '
1&
b0000000000000001 !
#1746
0&
#1751
1"
b0000000000000000 $
1&
#1756
0&
b0000000000001000 %
1+
#1761
b0000000000001000 $
b0000000000000001 #
1&
b0000000000000111 '
b0000000000000111 !
b0000000000000111 (
0"
#1766
0+
0&
#1771
1&
b0000000000000110 (
b0000000000000001 $
#1776
0&
#1781
b0000000000000110 '
b0000000000000101 (
b0000000000000110 !
1&
#1786
0&
#1791
b0000000000000101 !
1&
b0000000000000101 '
b0000000000000100 (
#1796
0&
#1801
b0000000000000100 '
b0000000000000011 (
1&
b0000000000000100 !
#1806
0&
#1811
b0000000000000011 '
b0000000000000011 !
b0000000000000010 (
1&
#1816
0&
#1821
b0000000000000010 !
b0000000000000001 (
b0000000000000010 '
1&
#1826
0&
#1831
b0000000000000000 #
b0000000000000001 '
1&
b0000000000000001 !
#1836
0&
#1841
1"
b0000000000000000 $
1&
#1846
0&
b0000000000001111 %
1+
#1851
b0000000000001111 $
b0000000000001000 #
1&
b0000000000000111 '
b0000000000000111 !
b0000000000000111 (
0"
#1856
0+
0&
#1861
b0000000000001000 $
b0000000000000001 #
1&
#1866
0&
#1871
1&
b0000000000000110 (
b0000000000000001 $
#1876
0&
#1881
b0000000000000110 '
b0000000000000101 (
b0000000000000110 !
1&
#1886
0&
#1891
b0000000000000101 !
1&
b0000000000000101 '
b0000000000000100 (
#1896
0&
#1901
b0000000000000100 '
b0000000000000011 (
1&
b0000000000000100 !
#1906
0&
#1911
b0000000000000011 '
b0000000000000011 !
b0000000000000010 (
1&
#1916
0&
#1921
b0000000000000010 !
b0000000000000001 (
b0000000000000010 '
1&
#1926
0&
#1931
b0000000000000000 #
b0000000000000001 '
1&
b0000000000000001 !
#1936
0&
#1941
1"
b0000000000000000 $
1&
#1946
b0000000000010110 %
0&
1+
#1951
b0000000000010110 $
1&
b0000000000000111 '
b0000000000000111 !
b0000000000001111 #
b0000000000000111 (
0"
#1956
0+
0&
#1961
b0000000000001111 $
b0000000000001000 #
1&
#1966
0&
#1971
b0000000000001000 $
b0000000000000001 #
1&
#1976
0&
#1981
1&
b0000000000000110 (
b0000000000000001 $
#1986
0&
#1991
b0000000000000110 '
b0000000000000101 (
b0000000000000110 !
1&
#1996
0&
#2001
b0000000000000101 !
1&
b0000000000000101 '
b0000000000000100 (
#2006
0&
#2011
b0000000000000100 '
b0000000000000011 (
1&
b0000000000000100 !
#2016
0&
#2021
b0000000000000011 '
b0000000000000011 !
b0000000000000010 (
1&
#2026
0&
#2031
b0000000000000010 !
b0000000000000001 (
b0000000000000010 '
1&
#2036
0&
#2041
b0000000000000000 #
b0000000000000001 '
1&
b0000000000000001 !
#2046
0&
#2051
1"
b0000000000000000 $
1&
#2056
0&
b0000000000011101 %
1+
#2061
1&
b0000000000000111 '
b0000000000011101 $
b0000000000000111 !
b0000000000010110 #
b0000000000000111 (
0"
#2066
0+
0&
#2071
b0000000000010110 $
1&
b0000000000001111 #
#2076
0&
#2081
b0000000000001111 $
b0000000000001000 #
1&
#2086
0&
#2091
b0000000000001000 $
b0000000000000001 #
1&
#2096
0&
#2101
1&
b0000000000000110 (
b0000000000000001 $
#2106
0&
#2111
b0000000000000110 '
b0000000000000101 (
b0000000000000110 !
1&
#2116
0&
#2121
b0000000000000101 !
1&
b0000000000000101 '
b0000000000000100 (
#2126
0&
#2131
b0000000000000100 '
b0000000000000011 (
1&
b0000000000000100 !
#2136
0&
#2141
b0000000000000011 '
b0000000000000011 !
b0000000000000010 (
1&
#2146
0&
#2151
b0000000000000010 !
b0000000000000001 (
b0000000000000010 '
1&
#2156
0&
#2161
b0000000000000000 #
b0000000000000001 '
1&
b0000000000000001 !
#2166
0&
#2171
1"
b0000000000000000 $
1&
#2176
b0000000000100100 %
0&
1+
#2181
b0000000000011101 #
1&
b0000000000000111 '
b0000000000000111 !
b0000000000000111 (
0"
b0000000000100100 $
#2186
0+
0&
#2191
1&
b0000000000011101 $
b0000000000010110 #
#2196
0&
#2201
b0000000000010110 $
1&
b0000000000001111 #
#2206
0&
#2211
b0000000000001111 $
b0000000000001000 #
1&
#2216
0&
#2221
b0000000000001000 $
b0000000000000001 #
1&
#2226
0&
#2231
1&
b0000000000000110 (
b0000000000000001 $
#2236
0&
#2241
b0000000000000110 '
b0000000000000101 (
b0000000000000110 !
1&
#2246
0&
#2251
b0000000000000101 !
1&
b0000000000000101 '
b0000000000000100 (
#2256
0&
#2261
b0000000000000100 '
b0000000000000011 (
1&
b0000000000000100 !
#2266
0&
#2271
b0000000000000011 '
b0000000000000011 !
b0000000000000010 (
1&
#2276
0&
#2281
b0000000000000010 !
b0000000000000001 (
b0000000000000010 '
1&
#2286
0&
#2291
b0000000000000000 #
b0000000000000001 '
1&
b0000000000000001 !
#2296
0&
#2301
1"
b0000000000000000 $
1&
#2306
0&
b0000000000000001 %
1+
b0000000000001010 *
#2311
b0000000000001010 '
b0000000000000001 #
b0000000000001001 (
1&
b0000000000001010 !
0"
b0000000000000001 $
#2316
0+
0&
#2321
b0000000000001001 !
1&
b0000000000001001 '
b0000000000001000 (
#2326
0&
#2331
1&
b0000000000000111 (
b0000000000001000 !
b0000000000001000 '
#2336
0&
#2341
1&
b0000000000000111 '
b0000000000000111 !
b0000000000000110 (
#2346
0&
#2351
b0000000000000110 '
b0000000000000101 (
b0000000000000110 !
1&
#2356
0&
#2361
b0000000000000101 !
1&
b0000000000000101 '
b0000000000000100 (
#2366
0&
#2371
b0000000000000100 '
b0000000000000011 (
1&
b0000000000000100 !
#2376
0&
#2381
b0000000000000011 '
b0000000000000011 !
b0000000000000010 (
1&
#2386
0&
#2391
b0000000000000010 !
b0000000000000001 (
b0000000000000010 '
1&
#2396
0&
#2401
b0000000000000000 #
b0000000000000001 '
1&
b0000000000000001 !
#2406
0&
#2411
1"
b0000000000000000 $
1&
#2416
0&
b0000000000001000 %
1+
#2421
b0000000000001000 $
b0000000000001010 '
b0000000000001000 #
b0000000000000010 (
1&
b0000000000001010 !
0"
#2426
0+
0&
#2431
b0000000000000110 #
b0000000000000010 !
b0000000000000010 '
1&
#2436
0&
#2441
1&
b0000000000000100 #
b0000000000000110 $
#2446
0&
#2451
b0000000000000010 #
1&
b0000000000000100 $
#2456
0&
#2461
b0000000000000010 $
b0000000000000000 #
1&
#2466
0&
#2471
1"
b0000000000000000 $
1&
#2476
0&
b0000000000001111 %
1+
#2481
b0000000000001010 (
b0000000000001010 '
b0000000000001111 $
1&
b0000000000001010 !
0"
b0000000000000101 #
#2486
0+
0&
#2491
b0000000000000101 (
1&
b0000000000000101 $
#2496
0&
#2501
b0000000000000000 #
b0000000000000101 !
1&
b0000000000000101 '
#2506
0&
#2511
1"
b0000000000000000 $
1&
#2516
b0000000000010110 %
0&
1+
#2521
b0000000000001010 (
b0000000000010110 $
b0000000000001010 '
b0000000000001100 #
1&
b0000000000001010 !
0"
#2526
0+
0&
#2531
b0000000000000010 #
b0000000000001100 $
1&
#2536
0&
#2541
b0000000000000010 $
1&
b0000000000001000 (
#2546
0&
#2551
1&
b0000000000000110 (
b0000000000001000 !
b0000000000001000 '
#2556
0&
#2561
b0000000000000110 '
b0000000000000110 !
1&
b0000000000000100 (
#2566
0&
#2571
b0000000000000100 '
b0000000000000010 (
1&
b0000000000000100 !
#2576
0&
#2581
b0000000000000010 !
b0000000000000000 #
b0000000000000010 '
1&
#2586
0&
#2591
1"
b0000000000000000 $
1&
#2596
0&
b0000000000011101 %
1+
#2601
b0000000000001010 (
b0000000000001010 '
1&
b0000000000011101 $
b0000000000010011 #
b0000000000001010 !
0"
#2606
0+
0&
#2611
1&
b0000000000001001 #
b0000000000010011 $
#2616
0&
#2621
b0000000000000001 (
1&
b0000000000001001 $
#2626
0&
#2631
b0000000000001000 #
b0000000000000001 '
1&
b0000000000000001 !
#2636
0&
#2641
b0000000000001000 $
1&
b0000000000000111 #
#2646
0&
#2651
b0000000000000110 #
b0000000000000111 $
1&
#2656
0&
#2661
1&
b0000000000000110 $
b0000000000000101 #
#2666
0&
#2671
1&
b0000000000000101 $
b0000000000000100 #
#2676
0&
#2681
b0000000000000011 #
1&
b0000000000000100 $
#2686
0&
#2691
b0000000000000010 #
b0000000000000011 $
1&
#2696
0&
#2701
b0000000000000010 $
b0000000000000001 #
1&
#2706
0&
#2711
b0000000000000000 #
1&
b0000000000000001 $
#2716
0&
#2721
1"
b0000000000000000 $
1&
#2726
b0000000000100100 %
0&
1+
#2731
b0000000000001010 (
b0000000000001010 '
1&
b0000000000011010 #
b0000000000001010 !
0"
b0000000000100100 $
#2736
0+
0&
#2741
b0000000000011010 $
1&
b0000000000010000 #
#2746
0&
#2751
b0000000000000110 #
1&
b0000000000010000 $
#2756
0&
#2761
1&
b0000000000000110 $
b0000000000000100 (
#2766
0&
#2771
b0000000000000010 #
b0000000000000100 '
1&
b0000000000000100 !
#2776
0&
#2781
b0000000000000010 $
b0000000000000010 (
1&
#2786
0&
#2791
b0000000000000010 !
b0000000000000000 #
b0000000000000010 '
1&
#2796
0&
#2801
1"
b0000000000000000 $
1&
#2806
0&
b0000000000000001 %
1+
b0000000000001101 *
#2811
b0000000000000001 #
b0000000000001101 !
1&
b0000000000001100 (
0"
b0000000000000001 $
b0000000000001101 '
#2816
0+
0&
#2821
b0000000000001100 '
b0000000000001011 (
b0000000000001100 !
1&
#2826
0&
#2831
b0000000000001010 (
1&
b0000000000001011 '
b0000000000001011 !
#2836
0&
#2841
b0000000000001010 '
b0000000000001001 (
1&
b0000000000001010 !
#2846
0&
#2851
b0000000000001001 !
1&
b0000000000001001 '
b0000000000001000 (
#2856
0&
#2861
1&
b0000000000000111 (
b0000000000001000 !
b0000000000001000 '
#2866
0&
#2871
1&
b0000000000000111 '
b0000000000000111 !
b0000000000000110 (
#2876
0&
#2881
b0000000000000110 '
b0000000000000101 (
b0000000000000110 !
1&
#2886
0&
#2891
b0000000000000101 !
1&
b0000000000000101 '
b0000000000000100 (
#2896
0&
#2901
b0000000000000100 '
b0000000000000011 (
1&
b0000000000000100 !
#2906
0&
#2911
b0000000000000011 '
b0000000000000011 !
b0000000000000010 (
1&
#2916
0&
#2921
b0000000000000010 !
b0000000000000001 (
b0000000000000010 '
1&
#2926
0&
#2931
b0000000000000000 #
b0000000000000001 '
1&
b0000000000000001 !
#2936
0&
#2941
1"
b0000000000000000 $
1&
#2946
0&
b0000000000001000 %
1+
#2951
b0000000000001000 $
b0000000000000101 (
b0000000000001101 !
b0000000000001000 #
1&
0"
b0000000000001101 '
#2956
0+
0&
#2961
b0000000000000011 #
b0000000000000101 !
1&
b0000000000000101 '
#2966
0&
#2971
b0000000000000011 $
b0000000000000010 (
1&
#2976
0&
#2981
b0000000000000010 !
b0000000000000001 #
b0000000000000010 '
1&
#2986
0&
#2991
b0000000000000001 (
1&
b0000000000000001 $
#2996
0&
#3001
b0000000000000000 #
b0000000000000001 '
1&
b0000000000000001 !
#3006
0&
#3011
1"
b0000000000000000 $
1&
#3016
0&
b0000000000001111 %
1+
#3021
b0000000000000010 #
b0000000000001111 $
b0000000000001101 !
1&
b0000000000001101 (
0"
b0000000000001101 '
#3026
0+
0&
#3031
b0000000000000010 $
b0000000000001011 (
1&
#3036
0&
#3041
b0000000000001001 (
1&
b0000000000001011 '
b0000000000001011 !
#3046
0&
#3051
b0000000000001001 !
1&
b0000000000000111 (
b0000000000001001 '
#3056
0&
#3061
b0000000000000101 (
1&
b0000000000000111 '
b0000000000000111 !
#3066
0&
#3071
b0000000000000011 (
b0000000000000101 !
1&
b0000000000000101 '
#3076
0&
#3081
b0000000000000011 '
b0000000000000011 !
b0000000000000001 (
1&
#3086
0&
#3091
b0000000000000001 #
b0000000000000001 '
1&
b0000000000000001 !
#3096
0&
#3101
b0000000000000000 #
1&
b0000000000000001 $
#3106
0&
#3111
1"
b0000000000000000 $
1&
#3116
b0000000000010110 %
0&
1+
#3121
b0000000000010110 $
b0000000000001101 !
1&
b0000000000001001 #
b0000000000001101 (
0"
b0000000000001101 '
#3126
0+
0&
#3131
1&
b0000000000001001 $
b0000000000000100 (
#3136
0&
#3141
b0000000000000100 '
1&
b0000000000000101 #
b0000000000000100 !
#3146
0&
#3151
b0000000000000001 #
1&
b0000000000000101 $
#3156
0&
#3161
b0000000000000011 (
1&
b0000000000000001 $
#3166
0&
#3171
b0000000000000011 '
b0000000000000011 !
b0000000000000010 (
1&
#3176
0&
#3181
b0000000000000010 !
b0000000000000001 (
b0000000000000010 '
1&
#3186
0&
#3191
b0000000000000000 #
b0000000000000001 '
1&
b0000000000000001 !
#3196
0&
#3201
1"
b0000000000000000 $
1&
#3206
0&
b0000000000011101 %
1+
#3211
b0000000000001101 !
1&
b0000000000011101 $
b0000000000001101 (
0"
b0000000000010000 #
b0000000000001101 '
#3216
0+
0&
#3221
b0000000000000011 #
1&
b0000000000010000 $
#3226
0&
#3231
b0000000000001010 (
b0000000000000011 $
1&
#3236
0&
#3241
b0000000000001010 '
1&
b0000000000000111 (
b0000000000001010 !
#3246
0&
#3251
1&
b0000000000000111 '
b0000000000000111 !
b0000000000000100 (
#3256
0&
#3261
b0000000000000100 '
b0000000000000001 (
1&
b0000000000000100 !
#3266
0&
#3271
b0000000000000010 #
b0000000000000001 '
1&
b0000000000000001 !
#3276
0&
#3281
b0000000000000010 $
b0000000000000001 #
1&
#3286
0&
#3291
b0000000000000000 #
1&
b0000000000000001 $
#3296
0&
#3301
1"
b0000000000000000 $
1&
#3306
b0000000000100100 %
0&
1+
#3311
b0000000000001101 !
b0000000000010111 #
1&
b0000000000001101 (
0"
b0000000000001101 '
b0000000000100100 $
#3316
0+
0&
#3321
b0000000000001010 #
1&
b0000000000010111 $
#3326
0&
#3331
b0000000000000011 (
b0000000000001010 $
1&
#3336
0&
#3341
b0000000000000011 '
b0000000000000011 !
1&
b0000000000000111 #
#3346
0&
#3351
b0000000000000111 $
1&
b0000000000000100 #
#3356
0&
#3361
b0000000000000001 #
1&
b0000000000000100 $
#3366
0&
#3371
b0000000000000010 (
1&
b0000000000000001 $
#3376
0&
#3381
b0000000000000010 !
b0000000000000001 (
b0000000000000010 '
1&
#3386
0&
#3391
b0000000000000000 #
b0000000000000001 '
1&
b0000000000000001 !
#3396
0&
#3401
1"
b0000000000000000 $
1&
#3406
b0000000000010000 *
0&
b0000000000000001 %
1+
#3411
b0000000000000001 #
b0000000000001111 (
b0000000000010000 !
b0000000000010000 '
1&
0"
b0000000000000001 $
#3416
0+
0&
#3421
b0000000000001111 !
b0000000000001111 '
1&
b0000000000001110 (
#3426
0&
#3431
b0000000000001110 '
1&
b0000000000001110 !
b0000000000001101 (
#3436
0&
#3441
b0000000000001101 !
1&
b0000000000001100 (
b0000000000001101 '
#3446
0&
#3451
b0000000000001100 '
b0000000000001011 (
b0000000000001100 !
1&
#3456
0&
#3461
b0000000000001010 (
1&
b0000000000001011 '
b0000000000001011 !
#3466
0&
#3471
b0000000000001010 '
b0000000000001001 (
1&
b0000000000001010 !
#3476
0&
#3481
b0000000000001001 !
1&
b0000000000001001 '
b0000000000001000 (
#3486
0&
#3491
1&
b0000000000000111 (
b0000000000001000 !
b0000000000001000 '
#3496
0&
#3501
1&
b0000000000000111 '
b0000000000000111 !
b0000000000000110 (
#3506
0&
#3511
b0000000000000110 '
b0000000000000101 (
b0000000000000110 !
1&
#3516
0&
#3521
b0000000000000101 !
1&
b0000000000000101 '
b0000000000000100 (
#3526
0&
#3531
b0000000000000100 '
b0000000000000011 (
1&
b0000000000000100 !
#3536
0&
#3541
b0000000000000011 '
b0000000000000011 !
b0000000000000010 (
1&
#3546
0&
#3551
b0000000000000010 !
b0000000000000001 (
b0000000000000010 '
1&
#3556
0&
#3561
b0000000000000000 #
b0000000000000001 '
1&
b0000000000000001 !
#3566
0&
#3571
1"
b0000000000000000 $
1&
#3576
0&
b0000000000001000 %
1+
#3581
b0000000000001000 $
b0000000000001000 #
b0000000000010000 !
b0000000000010000 '
1&
0"
b0000000000001000 (
#3586
0+
0&
#3591
b0000000000000000 #
1&
b0000000000001000 !
b0000000000001000 '
#3596
0&
#3601
1"
b0000000000000000 $
1&
#3606
0&
b0000000000001111 %
1+
#3611
b0000000000001111 $
b0000000000000001 (
b0000000000010000 !
b0000000000010000 '
1&
b0000000000001111 #
0"
#3616
0+
0&
#3621
b0000000000001110 #
b0000000000000001 '
1&
b0000000000000001 !
#3626
0&
#3631
b0000000000001110 $
b0000000000001101 #
1&
#3636
0&
#3641
b0000000000001100 #
1&
b0000000000001101 $
#3646
0&
#3651
b0000000000001011 #
b0000000000001100 $
1&
#3656
0&
#3661
b0000000000001010 #
b0000000000001011 $
1&
#3666
0&
#3671
b0000000000001010 $
1&
b0000000000001001 #
#3676
0&
